test/simulation/qsim/test.msim.vcd
$comment
	File created using the following command:
		vcd file test.msim.vcd -direction
$end
$date
	Thu Oct 13 18:16:31 2016
$end
$version
	ModelSim Version 10.1d
$end
$timescale
	1ps
$end
$scope module KOM2_vlg_vec_tst $end
$var reg 1 ! X0 $end
$var reg 1 " X1 $end
$var reg 1 # X2 $end
$var reg 1 $ X3 $end
$var wire 1 % STOP $end
$var wire 1 & Y $end
$var wire 1 ' sampler $end
$scope module i1 $end
$var wire 1 ( gnd $end
$var wire 1 ) vcc $end
$var wire 1 * unknown $end
$var tri1 1 + devclrn $end
$var tri1 1 , devpor $end
$var tri1 1 - devoe $end
$var wire 1 . X3~combout $end
$var wire 1 / X1~combout $end
$var wire 1 0 X2~combout $end
$var wire 1 1 X0~combout $end
$var wire 1 2 inst4~0_combout $end
$var wire 1 3 inst~0_combout $end
$upscope $end
$upscope $end
$enddefinitions $end
#0
$dumpvars
0!
0"
0#
0$
0%
0&
x'
0(
1)
x*
1+
1,
1-
0.
0/
00
01
02
03
$end
#10000
1!
11
0'
12
1&
#20000
1"
0!
1/
01
1'
02
0&
#30000
1!
11
0'
#40000
1#
0"
0!
10
0/
01
1'
#50000
1!
11
0'
12
1&
#60000
1"
0!
1/
01
1'
02
0&
#70000
1!
11
0'
12
1&
#80000
1$
0#
0"
0!
1.
00
0/
01
1'
#90000
1!
11
0'
#100000
1"
0!
1/
01
1'
02
0&
#110000
1!
11
0'
13
1%
#120000
1#
0"
0!
10
0/
01
1'
12
03
1&
0%
#130000
1!
11
0'
#140000
1"
0!
1/
01
1'
#150000
1!
11
0'
13
1%
#160000
0$
0#
0"
0!
0.
00
0/
01
1'
03
02
0%
0&
#170000
1!
11
0'
12
1&
#180000
1"
0!
1/
01
1'
02
0&
#190000
1!
11
0'
#200000
1#
0"
0!
10
0/
01
1'
#210000
1!
11
0'
12
1&
#220000
1"
0!
1/
01
1'
02
0&
#230000
1!
11
0'
12
1&
#240000
1$
0#
0"
0!
1.
00
0/
01
1'
#250000
1!
11
0'
#260000
1"
0!
1/
01
1'
02
0&
#270000
1!
11
0'
13
1%
#280000
1#
0"
0!
10
0/
01
1'
12
03
1&
0%
#290000
1!
11
0'
#300000
1"
0!
1/
01
1'
#310000
1!
11
0'
13
1%
#320000
0$
0#
0"
0!
0.
00
0/
01
1'
03
02
0%
0&
#330000
1!
11
0'
12
1&
#340000
1"
0!
1/
01
1'
02
0&
#350000
1!
11
0'
#360000
1#
0"
0!
10
0/
01
1'
#370000
1!
11
0'
12
1&
#380000
1"
0!
1/
01
1'
02
0&
#390000
1!
11
0'
12
1&
#400000
1$
0#
0"
0!
1.
00
0/
01
1'
#410000
1!
11
0'
#420000
1"
0!
1/
01
1'
02
0&
#430000
1!
11
0'
13
1%
#440000
1#
0"
0!
10
0/
01
1'
12
03
1&
0%
#450000
1!
11
0'
#460000
1"
0!
1/
01
1'
#470000
1!
11
0'
13
1%
#480000
0$
0#
0"
0!
0.
00
0/
01
1'
03
02
0%
0&
#490000
1!
11
0'
12
1&
#500000
1"
0!
1/
01
1'
02
0&
#510000
1!
11
0'
#520000
1#
0"
0!
10
0/
01
1'
#530000
1!
11
0'
12
1&
#540000
1"
0!
1/
01
1'
02
0&
#550000
1!
11
0'
12
1&
#560000
1$
0#
0"
0!
1.
00
0/
01
1'
#570000
1!
11
0'
#580000
1"
0!
1/
01
1'
02
0&
#590000
1!
11
0'
13
1%
#600000
1#
0"
0!
10
0/
01
1'
12
03
1&
0%
#610000
1!
11
0'
#620000
1"
0!
1/
01
1'
#630000
1!
11
0'
13
1%
#640000
0$
0#
0"
0!
0.
00
0/
01
1'
03
02
0%
0&
#650000
1!
11
0'
12
1&
#660000
1"
0!
1/
01
1'
02
0&
#670000
1!
11
0'
#680000
1#
0"
0!
10
0/
01
1'
#690000
1!
11
0'
12
1&
#700000
1"
0!
1/
01
1'
02
0&
#710000
1!
11
0'
12
1&
#720000
1$
0#
0"
0!
1.
00
0/
01
1'
#730000
1!
11
0'
#740000
1"
0!
1/
01
1'
02
0&
#750000
1!
11
0'
13
1%
#760000
1#
0"
0!
10
0/
01
1'
12
03
1&
0%
#770000
1!
11
0'
#780000
1"
0!
1/
01
1'
#790000
1!
11
0'
13
1%
#800000
0$
0#
0"
0!
0.
00
0/
01
1'
03
02
0%
0&
#810000
1!
11
0'
12
1&
#820000
1"
0!
1/
01
1'
02
0&
#830000
1!
11
0'
#840000
1#
0"
0!
10
0/
01
1'
#850000
1!
11
0'
12
1&
#860000
1"
0!
1/
01
1'
02
0&
#870000
1!
11
0'
12
1&
#880000
1$
0#
0"
0!
1.
00
0/
01
1'
#890000
1!
11
0'
#900000
1"
0!
1/
01
1'
02
0&
#910000
1!
11
0'
13
1%
#920000
1#
0"
0!
10
0/
01
1'
12
03
1&
0%
#930000
1!
11
0'
#940000
1"
0!
1/
01
1'
#950000
1!
11
0'
13
1%
#960000
0$
0#
0"
0!
0.
00
0/
01
1'
03
02
0%
0&
#970000
1!
11
0'
12
1&
#980000
1"
0!
1/
01
1'
02
0&
#990000
1!
11
0'
